{
  "defaultParams": {
    "default_wh_name": "sprynter_qa",
    "default_wifi_ssid": "Caja-Robots",
    "default_wifi_pass": "REPLACE_ME",
    "default_chrony_ip": "10.1.8.11"
  },
  "setup_modes": [
    "factory",
    "field"
  ],
  "robot_modes": [
    "factory",
    "deboarded",
    "onboarded"
  ],
  "model_types": [
    "CART",
    "LIFT"
  ],
  "model_ids": [
    {
      "CT02": {
        "model_type": "CART",
        "model_height": "08"
      },
      "CT03": {
        "model_type": "CART",
        "model_height": "20"
      },
      "LT02": {
        "model_type": "LIFT",
        "model_height": "32"
      },
      "LT03": {
        "model_type": "LIFT",
        "model_height": "53"
      }
    }
  ],
  "base_driver_models": [
    "stxi",
    "roboteq",
    "elmo"
  ],
  "elevator_driver_models": [
    "stxi",
    "roboteq",
    "elmo"
  ],
  "lidar_types": [
    "_tg",
    "_yd",
    "_nanoscan"
  ],
  "camera_types": [
    "realsense",
    "ueye"
  ],
  "warehouses": [
    {
      "houseName": "Other",
      "ipAddresses": "",
      "whName": ""
    },
    {
      "houseName": "Deckers MW",
      "ipAddresses": "172.19.4.5",
      "whName": "deckers_indiana"
    },
    {
      "houseName": "Deckers MV",
      "ipAddresses": "172.19.0.11",
      "whName": "deckers_california"
    },
    {
      "houseName": "Sela Nike",
      "ipAddresses": "10.11.2.10",
      "whName": "sela_nike"
    },
    {
      "houseName": "Keshet KH",
      "ipAddresses": "10.10.10.10",
      "whName": "keshet_KH"
    },
    {
      "houseName": "Keshet PT",
      "ipAddresses": "172.26.10.10",
      "whName": "keshet_PT"
    },
    {
      "houseName": "Gaia Herbs",
      "ipAddresses": "172.28.10.10",
      "whName": "gaia_north"
    },
    {
      "houseName": "DSV Lahr",
      "ipAddresses": "10.12.2.10",
      "whName": "dsv_lahr"
    },
    {
      "houseName": "VM Bochum",
      "ipAddresses": "10.13.2.10",
      "whName": "vm_bochum"
    },
    {
      "houseName": "Clini Stoke",
      "ipAddresses": "10.14.2.10",
      "whName": "clini_stoke"
    },
    {
      "houseName": "Fives",
      "ipAddresses": "10.15.1.10",
      "whName": "fives_showroom"
    },
    {
      "houseName": "Caja Skyler",
      "ipAddresses": "10.1.8.10",
      "whName": "skyler_qa"
    },
    {
      "houseName": "Caja Sprynter",
      "ipAddresses": "10.1.8.11",
      "whName": "sprynter_qa"
    }
  ]
}