{
  "frames": [
    {
      "accessible": true,
      "affectedSticker": null,
      "barCode": "ST0020101",
      "binCode": null,
      "col": 0,
      "disableReason": "UNKNOWN",
      "externalDeviceId": 0,
      "floor": 0,
      "frameCreation": 1681399476259,
      "frameStickerDest": "2",
      "frameStickerSource": "1",
      "frameTypeId": "frameType",
      "hiveTagNumber": 0,
      "isAvailable": true,
      "isFastPicking": false,
      "isHiveLocation": false,
      "isSuspended": false,
      "isSynced": false,
      "locationArea": "lowerStorageName",
      "orientation": 90,
      "rackDirection": null,
      "rackTag": null,
      "reachable": true,
      "updated": 1681399476259,
      "vacant": true,
      "x": 14085,
      "y": 6287,
      "z": 479
    },
    {
      "accessible": true,
      "affectedSticker": null,
      "barCode": "ST0020201",
      "binCode": null,
      "col": 0,
      "disableReason": "UNKNOWN",
      "externalDeviceId": 0,
      "floor": 0,
      "frameCreation": 1681399476259,
      "frameStickerDest": "2",
      "frameStickerSource": "1",
      "frameTypeId": "frameType",
      "hiveTagNumber": 0,
      "isAvailable": true,
      "isFastPicking": false,
      "isHiveLocation": false,
      "isSuspended": false,
      "isSynced": false,
      "locationArea": "lowerStorageName",
      "orientation": 90,
      "rackDirection": null,
      "rackTag": null,
      "reachable": true,
      "updated": 1681399476259,
      "vacant": true,
      "x": 14085,
      "y": 6753,
      "z": 479
    },
    {
      "accessible": true,
      "affectedSticker": null,
      "barCode": "ST0020301",
      "binCode": null,
      "col": 0,
      "disableReason": "UNKNOWN",
      "externalDeviceId": 0,
      "floor": 0,
      "frameCreation": 1681399476259,
      "frameStickerDest": "3",
      "frameStickerSource": "2",
      "frameTypeId": "frameType",
      "hiveTagNumber": 0,
      "isAvailable": true,
      "isFastPicking": false,
      "isHiveLocation": false,
      "isSuspended": false,
      "isSynced": false,
      "locationArea": "lowerStorageName",
      "orientation": 90,
      "rackDirection": null,
      "rackTag": null,
      "reachable": true,
      "updated": 1681399476259,
      "vacant": true,
      "x": 14085,
      "y": 7219,
      "z": 479
    },
    {
      "accessible": true,
      "affectedSticker": null,
      "barCode": "ST0020102",
      "binCode": null,
      "col": 0,
      "disableReason": "UNKNOWN",
      "externalDeviceId": 0,
      "floor": 0,
      "frameCreation": 1681399476259,
      "frameStickerDest": "2",
      "frameStickerSource": "1",
      "frameTypeId": "frameType",
      "hiveTagNumber": 0,
      "isAvailable": true,
      "isFastPicking": false,
      "isHiveLocation": false,
      "isSuspended": false,
      "isSynced": false,
      "locationArea": "lowerStorageName",
      "orientation": 90,
      "rackDirection": null,
      "rackTag": null,
      "reachable": true,
      "updated": 1681399476259,
      "vacant": true,
      "x": 14085,
      "y": 6287,
      "z": 845
    },
    {
      "accessible": true,
      "affectedSticker": null,
      "barCode": "ST0020202",
      "binCode": null,
      "col": 0,
      "disableReason": "UNKNOWN",
      "externalDeviceId": 0,
      "floor": 0,
      "frameCreation": 1681399476259,
      "frameStickerDest": "2",
      "frameStickerSource": "1",
      "frameTypeId": "frameType",
      "hiveTagNumber": 0,
      "isAvailable": true,
      "isFastPicking": false,
      "isHiveLocation": false,
      "isSuspended": false,
      "isSynced": false,
      "locationArea": "lowerStorageName",
      "orientation": 90,
      "rackDirection": null,
      "rackTag": null,
      "reachable": true,
      "updated": 1681399476259,
      "vacant": true,
      "x": 14085,
      "y": 6753,
      "z": 845
    },
    {
      "accessible": true,
      "affectedSticker": null,
      "barCode": "ST0020302",
      "binCode": null,
      "col": 0,
      "disableReason": "UNKNOWN",
      "externalDeviceId": 0,
      "floor": 0,
      "frameCreation": 1681399476259,
      "frameStickerDest": "3",
      "frameStickerSource": "2",
      "frameTypeId": "frameType",
      "hiveTagNumber": 0,
      "isAvailable": true,
      "isFastPicking": false,
      "isHiveLocation": false,
      "isSuspended": false,
      "isSynced": false,
      "locationArea": "lowerStorageName",
      "orientation": 90,
      "rackDirection": null,
      "rackTag": null,
      "reachable": true,
      "updated": 1681399476259,
      "vacant": true,
      "x": 14085,
      "y": 7219,
      "z": 845
    },
    {
      "accessible": true,
      "affectedSticker": null,
      "barCode": "ST0010101",
      "binCode": null,
      "col": 0,
      "disableReason": "UNKNOWN",
      "externalDeviceId": 0,
      "floor": 0,
      "frameCreation": 1681399476259,
      "frameStickerDest": "2",
      "frameStickerSource": "1",
      "frameTypeId": "frameType",
      "hiveTagNumber": 0,
      "isAvailable": true,
      "isFastPicking": false,
      "isHiveLocation": false,
      "isSuspended": false,
      "isSynced": false,
      "locationArea": "lowerStorageName",
      "orientation": 270,
      "rackDirection": null,
      "rackTag": null,
      "reachable": true,
      "updated": 1681399476259,
      "vacant": true,
      "x": 15915,
      "y": 6287,
      "z": 479
    },
    {
      "accessible": true,
      "affectedSticker": null,
      "barCode": "ST0010201",
      "binCode": null,
      "col": 0,
      "disableReason": "UNKNOWN",
      "externalDeviceId": 0,
      "floor": 0,
      "frameCreation": 1681399476259,
      "frameStickerDest": "2",
      "frameStickerSource": "1",
      "frameTypeId": "frameType",
      "hiveTagNumber": 0,
      "isAvailable": true,
      "isFastPicking": false,
      "isHiveLocation": false,
      "isSuspended": false,
      "isSynced": false,
      "locationArea": "lowerStorageName",
      "orientation": 270,
      "rackDirection": null,
      "rackTag": null,
      "reachable": true,
      "updated": 1681399476259,
      "vacant": true,
      "x": 15915,
      "y": 6753,
      "z": 479
    },
    {
      "accessible": true,
      "affectedSticker": null,
      "barCode": "ST0010301",
      "binCode": null,
      "col": 0,
      "disableReason": "UNKNOWN",
      "externalDeviceId": 0,
      "floor": 0,
      "frameCreation": 1681399476259,
      "frameStickerDest": "3",
      "frameStickerSource": "2",
      "frameTypeId": "frameType",
      "hiveTagNumber": 0,
      "isAvailable": true,
      "isFastPicking": false,
      "isHiveLocation": false,
      "isSuspended": false,
      "isSynced": false,
      "locationArea": "lowerStorageName",
      "orientation": 270,
      "rackDirection": null,
      "rackTag": null,
      "reachable": true,
      "updated": 1681399476259,
      "vacant": true,
      "x": 15915,
      "y": 7219,
      "z": 479
    },
    {
      "accessible": true,
      "affectedSticker": null,
      "barCode": "ST0010102",
      "binCode": null,
      "col": 0,
      "disableReason": "UNKNOWN",
      "externalDeviceId": 0,
      "floor": 0,
      "frameCreation": 1681399476259,
      "frameStickerDest": "2",
      "frameStickerSource": "1",
      "frameTypeId": "frameType",
      "hiveTagNumber": 0,
      "isAvailable": true,
      "isFastPicking": false,
      "isHiveLocation": false,
      "isSuspended": false,
      "isSynced": false,
      "locationArea": "lowerStorageName",
      "orientation": 270,
      "rackDirection": null,
      "rackTag": null,
      "reachable": true,
      "updated": 1681399476259,
      "vacant": true,
      "x": 15915,
      "y": 6287,
      "z": 845
    },
    {
      "accessible": true,
      "affectedSticker": null,
      "barCode": "ST0010202",
      "binCode": null,
      "col": 0,
      "disableReason": "UNKNOWN",
      "externalDeviceId": 0,
      "floor": 0,
      "frameCreation": 1681399476259,
      "frameStickerDest": "2",
      "frameStickerSource": "1",
      "frameTypeId": "frameType",
      "hiveTagNumber": 0,
      "isAvailable": true,
      "isFastPicking": false,
      "isHiveLocation": false,
      "isSuspended": false,
      "isSynced": false,
      "locationArea": "lowerStorageName",
      "orientation": 270,
      "rackDirection": null,
      "rackTag": null,
      "reachable": true,
      "updated": 1681399476259,
      "vacant": true,
      "x": 15915,
      "y": 6753,
      "z": 845
    },
    {
      "accessible": true,
      "affectedSticker": null,
      "barCode": "ST0010302",
      "binCode": null,
      "col": 0,
      "disableReason": "UNKNOWN",
      "externalDeviceId": 0,
      "floor": 0,
      "frameCreation": 1681399476259,
      "frameStickerDest": "3",
      "frameStickerSource": "2",
      "frameTypeId": "frameType",
      "hiveTagNumber": 0,
      "isAvailable": true,
      "isFastPicking": false,
      "isHiveLocation": false,
      "isSuspended": false,
      "isSynced": false,
      "locationArea": "lowerStorageName",
      "orientation": 270,
      "rackDirection": null,
      "rackTag": null,
      "reachable": true,
      "updated": 1681399476259,
      "vacant": true,
      "x": 15915,
      "y": 7219,
      "z": 845
    }
  ]
}