{
  "navigationMaps": [
    {
      "mapId": "BUMBELBY_NO_BIN_MAP_ID",
      "roads": [
        {
          "accessible": true,
          "blocked": false,
          "dest": null,
          "destCode": "2",
          "destX": 15000,
          "destY": 6755,
          "isAvailable": true,
          "isIsle": true,
          "isReverse": false,
          "isSharpTurnAllowed": true,
          "mapBasedRoadWeights": [
            {
              "mapId": "BUMBELBY_NO_BIN_MAP_ID",
              "speed": 0.0,
              "weight": 0.97
            }
          ],
          "roadTypeId": 1,
          "src": null,
          "srcCode": "1",
          "srcX": 15000,
          "srcY": 5300
        },
        {
          "accessible": true,
          "blocked": false,
          "dest": null,
          "destCode": "3",
          "destX": 15000,
          "destY": 8210,
          "isAvailable": true,
          "isIsle": true,
          "isReverse": false,
          "isSharpTurnAllowed": true,
          "mapBasedRoadWeights": [
            {
              "mapId": "BUMBELBY_NO_BIN_MAP_ID",
              "speed": 0.0,
              "weight": 0.97
            }
          ],
          "roadTypeId": 1,
          "src": null,
          "srcCode": "2",
          "srcX": 15000,
          "srcY": 6755
        },
        {
          "accessible": true,
          "blocked": false,
          "dest": null,
          "destCode": "2",
          "destX": 15000,
          "destY": 6755,
          "isAvailable": true,
          "isIsle": true,
          "isReverse": true,
          "isSharpTurnAllowed": true,
          "mapBasedRoadWeights": [
            {
              "mapId": "BUMBELBY_NO_BIN_MAP_ID",
              "speed": 0.0,
              "weight": 0.97
            }
          ],
          "roadTypeId": 1,
          "src": null,
          "srcCode": "3",
          "srcX": 15000,
          "srcY": 8210
        },
        {
          "accessible": true,
          "blocked": false,
          "dest": null,
          "destCode": "1",
          "destX": 15000,
          "destY": 5300,
          "isAvailable": true,
          "isIsle": true,
          "isReverse": true,
          "isSharpTurnAllowed": true,
          "mapBasedRoadWeights": [
            {
              "mapId": "BUMBELBY_NO_BIN_MAP_ID",
              "speed": 0.0,
              "weight": 0.97
            }
          ],
          "roadTypeId": 1,
          "src": null,
          "srcCode": "2",
          "srcX": 15000,
          "srcY": 6755
        }
      ]
    },
    {
      "mapId": "BUMBELBY_WITH_BIN",
      "roads": [
        {
          "accessible": true,
          "blocked": false,
          "dest": null,
          "destCode": "2",
          "destX": 15000,
          "destY": 6755,
          "isAvailable": true,
          "isIsle": true,
          "isReverse": false,
          "isSharpTurnAllowed": true,
          "mapBasedRoadWeights": [
            {
              "mapId": "BUMBELBY_WITH_BIN",
              "speed": 0.0,
              "weight": 1.212
            }
          ],
          "roadTypeId": 1,
          "src": null,
          "srcCode": "1",
          "srcX": 15000,
          "srcY": 5300
        },
        {
          "accessible": true,
          "blocked": false,
          "dest": null,
          "destCode": "3",
          "destX": 15000,
          "destY": 8210,
          "isAvailable": true,
          "isIsle": true,
          "isReverse": false,
          "isSharpTurnAllowed": true,
          "mapBasedRoadWeights": [
            {
              "mapId": "BUMBELBY_WITH_BIN",
              "speed": 0.0,
              "weight": 1.212
            }
          ],
          "roadTypeId": 1,
          "src": null,
          "srcCode": "2",
          "srcX": 15000,
          "srcY": 6755
        }
      ]
    },
    {
      "mapId": "PICKING_MAP",
      "roads": []
    },
    {
      "mapId": "QUEUE_MAP",
      "roads": []
    }
  ],
  "queuesMap": {},
  "queuesOrientationMap": {},
  "roadTypes": {
    "roadTypeList": [
      {
        "description": "Aisle",
        "geometricType": "REGULAR",
        "id": 1,
        "property": "standardtAisle"
      },
      {
        "description": "Aisle turns",
        "geometricType": "TURN",
        "id": 2,
        "property": "aisleTurn"
      },
      {
        "description": "Highway ",
        "geometricType": "REGULAR",
        "id": 3,
        "property": "standardHighway"
      },
      {
        "description": "Double road in aisle",
        "geometricType": "DOUBLE",
        "id": 4,
        "property": "doubleAisle"
      },
      {
        "description": "Double road in highway",
        "geometricType": "DOUBLE",
        "id": 5,
        "property": "doubleHighway"
      },
      {
        "description": "Turn in highway",
        "geometricType": "TURN",
        "id": 6,
        "property": "highwayTurn"
      },
      {
        "description": "s_turn",
        "geometricType": "STURN",
        "id": 7,
        "property": "standardSTurn"
      },
      {
        "description": "Regular under the shelves roads",
        "geometricType": "REGULAR",
        "id": 8,
        "property": "underShelfAisle"
      },
      {
        "description": "Double under the shelves roads",
        "geometricType": "DOUBLE",
        "id": 9,
        "property": "underShelfDouble"
      },
      {
        "description": "Under the shelves turns",
        "geometricType": "TURN",
        "id": 10,
        "property": "underShelfTurn"
      },
      {
        "description": "Regular picking road",
        "geometricType": "REGULAR",
        "id": 11,
        "property": "pickingRoad"
      },
      {
        "description": "Picking turn roads",
        "geometricType": "TURN",
        "id": 12,
        "property": "pickingTurn"
      },
      {
        "description": "Picking connecting roads",
        "geometricType": "REGULAR",
        "id": 13,
        "property": "pickingConnectingAisle"
      },
      {
        "description": "Picking connecting turns",
        "geometricType": "TURN",
        "id": 14,
        "property": "pickingConnectingTurn"
      },
      {
        "description": "Picking double roads",
        "geometricType": "DOUBLE",
        "id": 15,
        "property": "pickingDoubleRoad"
      },
      {
        "description": "Regular parking road",
        "geometricType": "REGULAR",
        "id": 16,
        "property": "parkingRoad"
      },
      {
        "description": "Parking turn roads",
        "geometricType": "TURN",
        "id": 17,
        "property": "parkingTurn"
      },
      {
        "description": "Parking double roads",
        "geometricType": "DOUBLE",
        "id": 18,
        "property": "parkingDoubleRoad"
      },
      {
        "description": "Queue regular road",
        "geometricType": "REGULAR",
        "id": 19,
        "property": "queueRoad"
      },
      {
        "description": "Queue turn road",
        "geometricType": "TURN",
        "id": 20,
        "property": "queueTurn"
      },
      {
        "description": "Queue s turn roads",
        "geometricType": "STURN",
        "id": 21,
        "property": "queueSTurn"
      },
      {
        "description": "Queue connecting roads",
        "geometricType": "REGULAR",
        "id": 22,
        "property": "queueConnectingAisle"
      },
      {
        "description": "Queue connecting turns",
        "geometricType": "TURN",
        "id": 23,
        "property": "queueConnectingTurn"
      },
      {
        "description": "Under the shelves with bin turns",
        "geometricType": "TURN",
        "id": 24,
        "property": "underShelfTurnWithBin"
      },
      {
        "description": "Double under the shelves with bin roads",
        "geometricType": "DOUBLE",
        "id": 25,
        "property": "underShelfDoubleWithBin"
      },
      {
        "description": "Main double highway",
        "geometricType": "DOUBLE",
        "id": 26,
        "property": "mainDoubleHighWay"
      },
      {
        "description": "standardSTurnParking",
        "geometricType": "STURN",
        "id": 27,
        "property": "standardSTurnParking"
      },
      {
        "description": "underShelfSTurn",
        "geometricType": "STURN",
        "id": 28,
        "property": "underShelfSTurn"
      },
      {
        "description": "parking stickers connecting roads",
        "geometricType": "TURN",
        "id": 29,
        "property": "dynamicParkingTurnType"
      }
    ]
  },
  "stickers": [
    {
      "alias": 1,
      "barcodeValue": "1",
      "x": 15000,
      "y": 5300
    },
    {
      "alias": 2,
      "barcodeValue": "2",
      "x": 15000,
      "y": 6755
    },
    {
      "alias": 3,
      "barcodeValue": "3",
      "x": 15000,
      "y": 8210
    }
  ],
  "version": 6
}